{
  "excludedUrls": "twitch.tv,youtube.com,netflix.com,disneyplus.com",
  "linkHintCharacters": "asdfqwerzxcvhjkluiopnm",
  "detectByCursorStyle": true,
  "scrollSize": 150,
  "openTabUrl": "https://duckduckgo.com/",
  "modifier": "",
  "smoothScroll": true,
  "scrollDuration": 25,
  "transparentBindings": true,
  "bindings": {
      "hintToggle": "f",
      "newTabHintToggle": "shift+f",
      "scrollUp": "k",
      "scrollDown": "j",
      "scrollLeft": "h",
      "scrollRight": "l",
      "scrollUpHalfPage": "ctrl+u",
      "scrollDownHalfPage": "ctrl+d",
      "goToPageTop": "g g",
      "goToPageBottom": "shift+g",
      "goToFirstInput": "g i",
      "goBack": "shift+h",
      "goForward": "shift+l",
      "reload": "r",
      "tabForward": "shift+j",
      "tabBack": "shift+k",
      "closeTab": "d",
      "openTab": "t"
  }
}
